{
  "configVersion": 2,
  "packages": [
    {
      "name": "async",
      "rootUri": "file:///D:/dev/flutter/.pub-cache/hosted/pub.dartlang.org/async-2.7.0",
      "packageUri": "lib/",
      "languageVersion": "2.12"
    },
    {
      "name": "boolean_selector",
      "rootUri": "file:///D:/dev/flutter/.pub-cache/hosted/pub.dartlang.org/boolean_selector-2.1.0",
      "packageUri": "lib/",
      "languageVersion": "2.12"
    },
    {
      "name": "characters",
      "rootUri": "file:///D:/dev/flutter/.pub-cache/hosted/pub.dartlang.org/characters-1.1.0",
      "packageUri": "lib/",
      "languageVersion": "2.12"
    },
    {
      "name": "charcode",
      "rootUri": "file:///D:/dev/flutter/.pub-cache/hosted/pub.dartlang.org/charcode-1.2.0",
      "packageUri": "lib/",
      "languageVersion": "2.12"
    },
    {
      "name": "clock",
      "rootUri": "file:///D:/dev/flutter/.pub-cache/hosted/pub.dartlang.org/clock-1.1.0",
      "packageUri": "lib/",
      "languageVersion": "2.12"
    },
    {
      "name": "collection",
      "rootUri": "file:///D:/dev/flutter/.pub-cache/hosted/pub.dartlang.org/collection-1.15.0",
      "packageUri": "lib/",
      "languageVersion": "2.12"
    },
    {
      "name": "cupertino_icons",
      "rootUri": "file:///D:/dev/flutter/.pub-cache/hosted/pub.dartlang.org/cupertino_icons-0.1.3",
      "packageUri": "lib/",
      "languageVersion": "2.0"
    },
    {
      "name": "fake_async",
      "rootUri": "file:///D:/dev/flutter/.pub-cache/hosted/pub.dartlang.org/fake_async-1.2.0",
      "packageUri": "lib/",
      "languageVersion": "2.12"
    },
    {
      "name": "file",
      "rootUri": "file:///D:/dev/flutter/.pub-cache/hosted/pub.dartlang.org/file-5.2.1",
      "packageUri": "lib/",
      "languageVersion": "2.2"
    },
    {
      "name": "flutter",
      "rootUri": "file:///D:/dev/flutter/packages/flutter",
      "packageUri": "lib/",
      "languageVersion": "2.12"
    },
    {
      "name": "flutter_test",
      "rootUri": "file:///D:/dev/flutter/packages/flutter_test",
      "packageUri": "lib/",
      "languageVersion": "2.12"
    },
    {
      "name": "intl",
      "rootUri": "file:///D:/dev/flutter/.pub-cache/hosted/pub.dartlang.org/intl-0.16.1",
      "packageUri": "lib/",
      "languageVersion": "2.5"
    },
    {
      "name": "matcher",
      "rootUri": "file:///D:/dev/flutter/.pub-cache/hosted/pub.dartlang.org/matcher-0.12.10",
      "packageUri": "lib/",
      "languageVersion": "2.12"
    },
    {
      "name": "meta",
      "rootUri": "file:///D:/dev/flutter/.pub-cache/hosted/pub.dartlang.org/meta-1.4.0",
      "packageUri": "lib/",
      "languageVersion": "2.12"
    },
    {
      "name": "path",
      "rootUri": "file:///D:/dev/flutter/.pub-cache/hosted/pub.dartlang.org/path-1.8.0",
      "packageUri": "lib/",
      "languageVersion": "2.12"
    },
    {
      "name": "path_provider",
      "rootUri": "file:///D:/dev/flutter/.pub-cache/hosted/pub.dartlang.org/path_provider-1.6.11",
      "packageUri": "lib/",
      "languageVersion": "2.1"
    },
    {
      "name": "path_provider_linux",
      "rootUri": "file:///D:/dev/flutter/.pub-cache/hosted/pub.dartlang.org/path_provider_linux-0.0.1+2",
      "packageUri": "lib/",
      "languageVersion": "2.1"
    },
    {
      "name": "path_provider_macos",
      "rootUri": "file:///D:/dev/flutter/.pub-cache/hosted/pub.dartlang.org/path_provider_macos-0.0.4+3",
      "packageUri": "lib/",
      "languageVersion": "2.1"
    },
    {
      "name": "path_provider_platform_interface",
      "rootUri": "file:///D:/dev/flutter/.pub-cache/hosted/pub.dartlang.org/path_provider_platform_interface-1.0.2",
      "packageUri": "lib/",
      "languageVersion": "2.1"
    },
    {
      "name": "platform",
      "rootUri": "file:///D:/dev/flutter/.pub-cache/hosted/pub.dartlang.org/platform-2.2.1",
      "packageUri": "lib/",
      "languageVersion": "1.24"
    },
    {
      "name": "plugin_platform_interface",
      "rootUri": "file:///D:/dev/flutter/.pub-cache/hosted/pub.dartlang.org/plugin_platform_interface-1.0.2",
      "packageUri": "lib/",
      "languageVersion": "2.1"
    },
    {
      "name": "process",
      "rootUri": "file:///D:/dev/flutter/.pub-cache/hosted/pub.dartlang.org/process-3.0.13",
      "packageUri": "lib/",
      "languageVersion": "2.0"
    },
    {
      "name": "qrscan",
      "rootUri": "file:///D:/dev/flutter/.pub-cache/hosted/pub.dartlang.org/qrscan-0.2.17",
      "packageUri": "lib/",
      "languageVersion": "2.1"
    },
    {
      "name": "sky_engine",
      "rootUri": "file:///D:/dev/flutter/bin/cache/pkg/sky_engine",
      "packageUri": "lib/",
      "languageVersion": "2.12"
    },
    {
      "name": "source_span",
      "rootUri": "file:///D:/dev/flutter/.pub-cache/hosted/pub.dartlang.org/source_span-1.8.1",
      "packageUri": "lib/",
      "languageVersion": "2.12"
    },
    {
      "name": "sqflite",
      "rootUri": "file:///D:/dev/flutter/.pub-cache/hosted/pub.dartlang.org/sqflite-1.3.1",
      "packageUri": "lib/",
      "languageVersion": "2.7"
    },
    {
      "name": "sqflite_common",
      "rootUri": "file:///D:/dev/flutter/.pub-cache/hosted/pub.dartlang.org/sqflite_common-1.0.2+1",
      "packageUri": "lib/",
      "languageVersion": "2.7"
    },
    {
      "name": "stack_trace",
      "rootUri": "file:///D:/dev/flutter/.pub-cache/hosted/pub.dartlang.org/stack_trace-1.10.0",
      "packageUri": "lib/",
      "languageVersion": "2.12"
    },
    {
      "name": "stream_channel",
      "rootUri": "file:///D:/dev/flutter/.pub-cache/hosted/pub.dartlang.org/stream_channel-2.1.0",
      "packageUri": "lib/",
      "languageVersion": "2.12"
    },
    {
      "name": "string_scanner",
      "rootUri": "file:///D:/dev/flutter/.pub-cache/hosted/pub.dartlang.org/string_scanner-1.1.0",
      "packageUri": "lib/",
      "languageVersion": "2.12"
    },
    {
      "name": "synchronized",
      "rootUri": "file:///D:/dev/flutter/.pub-cache/hosted/pub.dartlang.org/synchronized-2.2.0",
      "packageUri": "lib/",
      "languageVersion": "2.6"
    },
    {
      "name": "term_glyph",
      "rootUri": "file:///D:/dev/flutter/.pub-cache/hosted/pub.dartlang.org/term_glyph-1.2.0",
      "packageUri": "lib/",
      "languageVersion": "2.12"
    },
    {
      "name": "test_api",
      "rootUri": "file:///D:/dev/flutter/.pub-cache/hosted/pub.dartlang.org/test_api-0.4.0",
      "packageUri": "lib/",
      "languageVersion": "2.12"
    },
    {
      "name": "typed_data",
      "rootUri": "file:///D:/dev/flutter/.pub-cache/hosted/pub.dartlang.org/typed_data-1.3.0",
      "packageUri": "lib/",
      "languageVersion": "2.12"
    },
    {
      "name": "vector_math",
      "rootUri": "file:///D:/dev/flutter/.pub-cache/hosted/pub.dartlang.org/vector_math-2.1.0",
      "packageUri": "lib/",
      "languageVersion": "2.12"
    },
    {
      "name": "webview_flutter",
      "rootUri": "file:///D:/dev/flutter/.pub-cache/hosted/pub.dartlang.org/webview_flutter-0.3.22+1",
      "packageUri": "lib/",
      "languageVersion": "2.7"
    },
    {
      "name": "xdg_directories",
      "rootUri": "file:///D:/dev/flutter/.pub-cache/hosted/pub.dartlang.org/xdg_directories-0.1.0",
      "packageUri": "lib/",
      "languageVersion": "2.3"
    },
    {
      "name": "HealthyBodyFit",
      "rootUri": "../",
      "packageUri": "lib/",
      "languageVersion": "2.7"
    }
  ],
  "generated": "2021-07-01T12:08:44.581232Z",
  "generator": "pub",
  "generatorVersion": "2.14.0-188.0.dev"
}
